<svg xmlns="http://www.w3.org/2000/svg" viewBox="0 0 12 10">
    <g fill="white" stroke-linejoin="round">
        <path d="
            M 10 0
            l -10 5
            l 10 5
            z
        " />
    </g>
</svg>